Sony,Allenwood,Kildare,BENNETT AUDIO VIDEO SERVICES LTD
Sony,Athy Town,Kildare,BENNETT AUDIO VIDEO SERVICES LTD
Sony,Ballyboghil,Dublin,BENNETT AUDIO VIDEO SERVICES LTD
Sony,Ballymore Eustace,Kildare,BENNETT AUDIO VIDEO SERVICES LTD
Sony,Ballyoulster,Kildare,BENNETT AUDIO VIDEO SERVICES LTD
Sony,Ballyroe,Kildare,BENNETT AUDIO VIDEO SERVICES LTD
Sony,Ballysax,Kildare,BENNETT AUDIO VIDEO SERVICES LTD
Sony,Blackwood (see Coill Dubh),Kildare,BENNETT AUDIO VIDEO SERVICES LTD
Sony,Brittas,Dublin,BENNETT AUDIO VIDEO SERVICES LTD
Sony,Brownstown,Kildare,BENNETT AUDIO VIDEO SERVICES LTD
Sony,Calverstown,Kildare,BENNETT AUDIO VIDEO SERVICES LTD
Sony,Carragh,Kildare,BENNETT AUDIO VIDEO SERVICES LTD
Sony,Celbridge,Kildare,BENNETT AUDIO VIDEO SERVICES LTD
Sony,Clane,Kildare,BENNETT AUDIO VIDEO SERVICES LTD
Sony,Coill Dubh (or Blackwood),Kildare,BENNETT AUDIO VIDEO SERVICES LTD
Sony,County Dublin Southside,Dublin,BENNETT AUDIO VIDEO SERVICES LTD
Sony,Derrinturn,Kildare,BENNETT AUDIO VIDEO SERVICES LTD
Sony,Droichead Nua  (formerly Newbr,Kildare,BENNETT AUDIO VIDEO SERVICES LTD
Sony,Droichead Nua Environs,Kildare,BENNETT AUDIO VIDEO SERVICES LTD
Sony,Dublin,Dublin,BENNETT AUDIO VIDEO SERVICES LTD
Sony,Dublin 10,Dublin,BENNETT AUDIO VIDEO SERVICES LTD
Sony,Dublin 12,Dublin,BENNETT AUDIO VIDEO SERVICES LTD
Sony,Dublin 14,Dublin,BENNETT AUDIO VIDEO SERVICES LTD
Sony,Dublin 16,Dublin,BENNETT AUDIO VIDEO SERVICES LTD
Sony,Dublin 18,Dublin,BENNETT AUDIO VIDEO SERVICES LTD
Sony,Dublin 2,Dublin,BENNETT AUDIO VIDEO SERVICES LTD
Sony,Dublin 20,Dublin,BENNETT AUDIO VIDEO SERVICES LTD
Sony,Dublin 22,Dublin,BENNETT AUDIO VIDEO SERVICES LTD
Sony,Dublin 24,Dublin,BENNETT AUDIO VIDEO SERVICES LTD
Sony,Dublin 4,Dublin,BENNETT AUDIO VIDEO SERVICES LTD
Sony,Dublin 6,Dublin,BENNETT AUDIO VIDEO SERVICES LTD
Sony,Dublin 8,Dublin,BENNETT AUDIO VIDEO SERVICES LTD
Sony,Dublin City,Dublin,BENNETT AUDIO VIDEO SERVICES LTD
Sony,Grangemore,Kildare,BENNETT AUDIO VIDEO SERVICES LTD
Sony,Johnstown,Kildare,BENNETT AUDIO VIDEO SERVICES LTD
Sony,Johnstownbridge,Kildare,BENNETT AUDIO VIDEO SERVICES LTD
Sony,Kilberry,Kildare,BENNETT AUDIO VIDEO SERVICES LTD
Sony,Kilcock,Kildare,BENNETT AUDIO VIDEO SERVICES LTD
Sony,Kilcullen,Kildare,BENNETT AUDIO VIDEO SERVICES LTD
Sony,Kildare,Kildare,BENNETT AUDIO VIDEO SERVICES LTD
Sony,Kill,Kildare,BENNETT AUDIO VIDEO SERVICES LTD
Sony,Kilmeade,Kildare,BENNETT AUDIO VIDEO SERVICES LTD
Sony,Kilmeage,Kildare,BENNETT AUDIO VIDEO SERVICES LTD
Sony,Kinsealy-Drinan,Dublin,BENNETT AUDIO VIDEO SERVICES LTD
Sony,Ladytown,Kildare,BENNETT AUDIO VIDEO SERVICES LTD
Sony,Leixlip,Kildare,BENNETT AUDIO VIDEO SERVICES LTD
Sony,Loughshinny,Dublin,BENNETT AUDIO VIDEO SERVICES LTD
Sony,Maddenstown,Kildare,BENNETT AUDIO VIDEO SERVICES LTD
Sony,Maynooth,Kildare,BENNETT AUDIO VIDEO SERVICES LTD
Sony,Milltown,Kildare,BENNETT AUDIO VIDEO SERVICES LTD
Sony,Monasterevan,Kildare,BENNETT AUDIO VIDEO SERVICES LTD
Sony,Newbridge (see Droichead Nua),Kildare,BENNETT AUDIO VIDEO SERVICES LTD
Sony,Newcastle,Dublin,BENNETT AUDIO VIDEO SERVICES LTD
Sony,Newcastle South Dublin,Dublin,BENNETT AUDIO VIDEO SERVICES LTD
Sony,Nurney,Kildare,BENNETT AUDIO VIDEO SERVICES LTD
Sony,Prosperous,Kildare,BENNETT AUDIO VIDEO SERVICES LTD
Sony,Rathangan,Kildare,BENNETT AUDIO VIDEO SERVICES LTD
Sony,Rathcoole,Dublin,BENNETT AUDIO VIDEO SERVICES LTD
Sony,Rathcoole South Dublin,Dublin,BENNETT AUDIO VIDEO SERVICES LTD
Sony,Robertstown,Kildare,BENNETT AUDIO VIDEO SERVICES LTD
Sony,Saggart,Dublin,BENNETT AUDIO VIDEO SERVICES LTD
Sony,Saggart South Dublin,Dublin,BENNETT AUDIO VIDEO SERVICES LTD
Sony,Sallins,Kildare,BENNETT AUDIO VIDEO SERVICES LTD
Sony,Straffan,Kildare,BENNETT AUDIO VIDEO SERVICES LTD
Sony,Suncroft,Kildare,BENNETT AUDIO VIDEO SERVICES LTD
Sony,Ailt an Chorrin,Donegal,CRAIGAVON TV
Sony,An Bun Beag-Doir Beaga,Donegal,CRAIGAVON TV
Sony,An Charraig,Donegal,CRAIGAVON TV
Sony,An Clochn Liath,Donegal,CRAIGAVON TV
Sony,An Fl Carrach,Donegal,CRAIGAVON TV
Sony,Anagaire,Donegal,CRAIGAVON TV
Sony,Ardara,Donegal,CRAIGAVON TV
Sony,Ardee Environs,Louth,CRAIGAVON TV
Sony,Ardee Louth,Louth,CRAIGAVON TV
Sony,Bailieborough,Cavan,CRAIGAVON TV
Sony,Ballinagh,Cavan,CRAIGAVON TV
Sony,Ballinamore,Leitrim,CRAIGAVON TV
Sony,Ballincar,Sligo,CRAIGAVON TV
Sony,Ballintogher,Sligo,CRAIGAVON TV
Sony,Ballintra,Donegal,CRAIGAVON TV
Sony,Ballisodare,Sligo,CRAIGAVON TV
Sony,Ballybay,Monaghan,CRAIGAVON TV
Sony,Ballybofey-Stranorlar,Donegal,CRAIGAVON TV
Sony,Ballyconnell,Cavan,CRAIGAVON TV
Sony,Ballygawley,Sligo,CRAIGAVON TV
Sony,Ballyhaise,Cavan,CRAIGAVON TV
Sony,Ballyjamesduff,Cavan,CRAIGAVON TV
Sony,Ballyliffin,Donegal,CRAIGAVON TV
Sony,Ballymote,Sligo,CRAIGAVON TV
Sony,Ballyshannon,Donegal,CRAIGAVON TV
Sony,Baltray,Louth,CRAIGAVON TV
Sony,Bellanode,Monaghan,CRAIGAVON TV
Sony,Belturbet,Cavan,CRAIGAVON TV
Sony,Blacklion,Cavan,CRAIGAVON TV
Sony,Bridge End,Donegal,CRAIGAVON TV
Sony,Bun na Leaca,Donegal,CRAIGAVON TV
Sony,Buncrana,Donegal,CRAIGAVON TV
Sony,Bundoran,Donegal,CRAIGAVON TV
Sony,Burnfoot,Donegal,CRAIGAVON TV
Sony,Butlersbridge,Cavan,CRAIGAVON TV
Sony,Cabragh,Monaghan,CRAIGAVON TV
Sony,Carlingford,Louth,CRAIGAVON TV
Sony,Carndonagh,Donegal,CRAIGAVON TV
Sony,Carney,Sligo,CRAIGAVON TV
Sony,Carraig Airt,Donegal,CRAIGAVON TV
Sony,Carrickmacross,Monaghan,CRAIGAVON TV
Sony,Carrigallen,Leitrim,CRAIGAVON TV
Sony,Carrigans,Donegal,CRAIGAVON TV
Sony,Carrowkeel,Donegal,CRAIGAVON TV
Sony,Castlebellingham/Kilsaran,Louth,CRAIGAVON TV
Sony,Castlefin,Donegal,CRAIGAVON TV
Sony,Cavan,Cavan,CRAIGAVON TV
Sony,Cavan,Cavan,CRAIGAVON TV
Sony,Cill Charthaigh,Donegal,CRAIGAVON TV
Sony,Cliffoney,Sligo,CRAIGAVON TV
Sony,Clogherhead,Louth,CRAIGAVON TV
Sony,Clones,Monaghan,CRAIGAVON TV
Sony,Clonmany,Donegal,CRAIGAVON TV
Sony,Cnoc na Muirleog,Donegal,CRAIGAVON TV
Sony,Collon,Louth,CRAIGAVON TV
Sony,Collooney,Sligo,CRAIGAVON TV
Sony,Convoy,Donegal,CRAIGAVON TV
Sony,Coolaney,Sligo,CRAIGAVON TV
Sony,Cootehill,Cavan,CRAIGAVON TV
Sony,Creeslough,Donegal,CRAIGAVON TV
Sony,Cross Roads (see Falcarragh),Donegal,CRAIGAVON TV
Sony,Culdaff,Donegal,CRAIGAVON TV
Sony,Derrybeg (see Bunbeg-Derrybeg),Donegal,CRAIGAVON TV
Sony,Donegal,Donegal,CRAIGAVON TV
Sony,Drogheda Borough,Louth,CRAIGAVON TV
Sony,Drogheda Environs,Louth,CRAIGAVON TV
Sony,Dromahair,Leitrim,CRAIGAVON TV
Sony,Dromiskin,Louth,CRAIGAVON TV
Sony,Drumkeeran,Leitrim,CRAIGAVON TV
Sony,Drumod,Leitrim,CRAIGAVON TV
Sony,Drumshanbo,Leitrim,CRAIGAVON TV
Sony,Drumsna,Leitrim,CRAIGAVON TV
Sony,Dundalk Environs,Louth,CRAIGAVON TV
Sony,Dundalk Town,Louth,CRAIGAVON TV
Sony,Dunfanaghy,Donegal,CRAIGAVON TV
Sony,Dunkineely,Donegal,CRAIGAVON TV
Sony,Dunleer,Louth,CRAIGAVON TV
Sony,Easky,Sligo,CRAIGAVON TV
Sony,Emyvale,Monaghan,CRAIGAVON TV
Sony,Fahan,Donegal,CRAIGAVON TV
Sony,Glasslough,Monaghan,CRAIGAVON TV
Sony,Gleann Cholm Cille,Donegal,CRAIGAVON TV
Sony,Gleneely,Donegal,CRAIGAVON TV
Sony,Glenties,Donegal,CRAIGAVON TV
Sony,Gort an Choirce,Donegal,CRAIGAVON TV
Sony,Grange,Sligo,CRAIGAVON TV
Sony,Greencastle,Donegal,CRAIGAVON TV
Sony,Gurteen,Sligo,CRAIGAVON TV
Sony,Inniscrone,Sligo,CRAIGAVON TV
Sony,Inniskeen,Monaghan,CRAIGAVON TV
Sony,Jenkinstown,Louth,CRAIGAVON TV
Sony,Kildrum,Donegal,CRAIGAVON TV
Sony,Killeshandra,Cavan,CRAIGAVON TV
Sony,Killybegs,Donegal,CRAIGAVON TV
Sony,Killygordan,Donegal,CRAIGAVON TV
Sony,Kilmacrennan,Donegal,CRAIGAVON TV
Sony,Kilnaleck,Cavan,CRAIGAVON TV
Sony,Kilsaran (see Castlebellingham,Louth,CRAIGAVON TV
Sony,Kingscourt,Cavan,CRAIGAVON TV
Sony,Kinlough,Leitrim,CRAIGAVON TV
Sony,Knockbridge,Louth,CRAIGAVON TV
Sony,Laghy,Donegal,CRAIGAVON TV
Sony,Leitrim,Leitrim,CRAIGAVON TV
Sony,Letterkenny,Donegal,CRAIGAVON TV
Sony,Lifford,Donegal,CRAIGAVON TV
Sony,Loch an Iir,Donegal,CRAIGAVON TV
Sony,Londonderry,Derry,CRAIGAVON TV
Sony,Louth,Louth,CRAIGAVON TV
Sony,Malin,Donegal,CRAIGAVON TV
Sony,Manorcunningham,Donegal,CRAIGAVON TV
Sony,Manorhamilton,Leitrim,CRAIGAVON TV
Sony,Milford,Donegal,CRAIGAVON TV
Sony,Mn Lrach,Donegal,CRAIGAVON TV
Sony,Mohill,Leitrim,CRAIGAVON TV
Sony,Monaghan,Monaghan,CRAIGAVON TV
Sony,Mountcharles,Donegal,CRAIGAVON TV
Sony,Moville,Donegal,CRAIGAVON TV
Sony,Muff,Donegal,CRAIGAVON TV
Sony,Mullagh,Cavan,CRAIGAVON TV
Sony,Mullaghmore,Sligo,CRAIGAVON TV
Sony,Newbliss,Monaghan,CRAIGAVON TV
Sony,Newtowncunningham,Donegal,CRAIGAVON TV
Sony,Pettigo,Donegal,CRAIGAVON TV
Sony,Ramelton,Donegal,CRAIGAVON TV
Sony,Rann na Feirste,Donegal,CRAIGAVON TV
Sony,Raphoe,Donegal,CRAIGAVON TV
Sony,Riverstown,Sligo,CRAIGAVON TV
Sony,Rockcorry,Monaghan,CRAIGAVON TV
Sony,Rosses Point,Sligo,CRAIGAVON TV
Sony,Scotstown,Monaghan,CRAIGAVON TV
Sony,Shercock,Cavan,CRAIGAVON TV
Sony,Sligo,Sligo,CRAIGAVON TV
Sony,Smithborough,Monaghan,CRAIGAVON TV
Sony,St. Johnston,Donegal,CRAIGAVON TV
Sony,Stranorlar (see Ballybofey-Str,Donegal,CRAIGAVON TV
Sony,Swanlinbar,Cavan,CRAIGAVON TV
Sony,Tallanstown,Louth,CRAIGAVON TV
Sony,Termonfeckin,Louth,CRAIGAVON TV
Sony,Tievebane,Donegal,CRAIGAVON TV
Sony,Tinure,Louth,CRAIGAVON TV
Sony,Tubbercurry,Sligo,CRAIGAVON TV
Sony,Tullaghan,Leitrim,CRAIGAVON TV
Sony,Tullyallen,Louth,CRAIGAVON TV
Sony,Virginia,Cavan,CRAIGAVON TV
Sony,Adamstown,Wexford,KELTEC
Sony,Arklow,Wicklow,KELTEC
Sony,Arthurstown,Wexford,KELTEC
Sony,Ashford,Wicklow,KELTEC
Sony,Aughrim,Wicklow,KELTEC
Sony,Avoca,Wicklow,KELTEC
Sony,Bagenalstown,Carlow,KELTEC
Sony,Ballon,Carlow,KELTEC
Sony,Ballybrack,Dublin,KELTEC
Sony,Ballycanew,Wexford,KELTEC
Sony,Ballycullane,Wexford,KELTEC
Sony,Ballygeary (or Rosslare  Harbo,Wexford,KELTEC
Sony,Ballyhack,Wexford,KELTEC
Sony,Ballyragget Kilkenny,Kilkenny,KELTEC
Sony,Ballysimon,Wexford,KELTEC
Sony,Ballytore,Kildare,KELTEC
Sony,Baltinglass,Wicklow,KELTEC
Sony,Barntown,Wexford,KELTEC
Sony,Bennettsbridge,Kilkenny,KELTEC
Sony,Blessington,Wicklow,KELTEC
Sony,Borris,Carlow,KELTEC
Sony,Bray,Wicklow,KELTEC
Sony,Bridgetown,Wexford,KELTEC
Sony,Bunclody-Carrickduff,Wexford,KELTEC
Sony,Callan Kilkenny,Kilkenny,KELTEC
Sony,Camolin,Wexford,KELTEC
Sony,Campile,Wexford,KELTEC
Sony,Carlow,Carlow,KELTEC
Sony,Carnew,Wicklow,KELTEC
Sony,Carrickduff (see Bunclody-Carr,Wexford,KELTEC
Sony,Castle Ellis,Wexford,KELTEC
Sony,Castlebridge,Wexford,KELTEC
Sony,Castlecomer-Donaguile,Kilkenny,KELTEC
Sony,Castledermot,Kildare,KELTEC
Sony,Chatsworth (see Clogh-Chatswor,Kilkenny,KELTEC
Sony,Cheekpoint,Waterford,KELTEC
Sony,Clogh-Chatsworth Kilkenny,Kilkenny,KELTEC
Sony,Clonegal,Wexford,KELTEC
Sony,Clongeen,Wexford,KELTEC
Sony,Clonroche,Wexford,KELTEC
Sony,Coolgreany,Wexford,KELTEC
Sony,Courtown Harbour,Wexford,KELTEC
Sony,Dalkey,Dublin,KELTEC
Sony,Danescastle,Wexford,KELTEC
Sony,Donaguile (see Castlecomer-Don,Kilkenny,KELTEC
Sony,Donard,Wicklow,KELTEC
Sony,Dun Laoghaire,Dublin,KELTEC
Sony,Duncannon,Wexford,KELTEC
Sony,Dunlavin,Wicklow,KELTEC
Sony,Enniscorthy,Wexford,KELTEC
Sony,Enniskerry,Wicklow,KELTEC
Sony,Ferns,Wexford,KELTEC
Sony,Fethard-on-Sea,Wexford,KELTEC
Sony,Fiddown Kilkenny,Kilkenny,KELTEC
Sony,Ford,Wexford,KELTEC
Sony,Freshford Kilkenny,Kilkenny,KELTEC
Sony,Glashule,Dublin,KELTEC
Sony,Glenageary,Dublin,KELTEC
Sony,Glencullen Dn Laoghaire,Dublin,KELTEC
Sony,Glenealy,Wicklow,KELTEC
Sony,Goresbridge Kilkenny,Kilkenny,KELTEC
Sony,Gorey,Wexford,KELTEC
Sony,Gorey Environs,Wexford,KELTEC
Sony,Gowran Kilkenny,Kilkenny,KELTEC
Sony,Grahormac,Wexford,KELTEC
Sony,Graiguenamanagh-Tinnahinch,Carlow,KELTEC
Sony,Greystones,Wicklow,KELTEC
Sony,Hacketstown,Carlow,KELTEC
Sony,Inistioge,Kilkenny,KELTEC
Sony,Johnstown Kilkenny,Kilkenny,KELTEC
Sony,Kells Kilkenny,Kilkenny,KELTEC
Sony,Kernanstown,Carlow,KELTEC
Sony,Kilcoole,Wicklow,KELTEC
Sony,Kildavin,Carlow,KELTEC
Sony,Kilkenny,Kilkenny,KELTEC
Sony,Kill-O-The-Grange,Dublin,KELTEC
Sony,Killiney,Dublin,KELTEC
Sony,Kilmacanogue,Wicklow,KELTEC
Sony,Kilmacow Kilkenny,Kilkenny,KELTEC
Sony,Kilmoganny Kilkenny,Kilkenny,KELTEC
Sony,Kilmore Quay,Wexford,KELTEC
Sony,Kilpedder,Wicklow,KELTEC
Sony,Kilrane,Wexford,KELTEC
Sony,Kilternan,Dublin,KELTEC
Sony,Laragh,Wicklow,KELTEC
Sony,Lawcus Kilkenny,Kilkenny,KELTEC
Sony,Leighlinbridge,Carlow,KELTEC
Sony,Moneenroe Kilkenny,Kilkenny,KELTEC
Sony,Monkstown,Dublin,KELTEC
Sony,Mooncoin Kilkenny,Kilkenny,KELTEC
Sony,Mounttown,Dublin,KELTEC
Sony,Muinebeag (formerly Bagenalsto,Carlow,KELTEC
Sony,Muinebeag Environs,Carlow,KELTEC
Sony,Mullinavat Kilkenny,Kilkenny,KELTEC
Sony,Murntown,Wexford,KELTEC
Sony,Myshall,Carlow,KELTEC
Sony,Naas,Kildare,KELTEC
Sony,New Ross,Wexford,KELTEC
Sony,New Ross Environs,Wexford,KELTEC
Sony,Newbawn,Wexford,KELTEC
Sony,Newcastle,Wicklow,KELTEC
Sony,Newtownmountkennedy,Wicklow,KELTEC
Sony,Oilgate,Wexford,KELTEC
Sony,Oulart,Wexford,KELTEC
Sony,Passage East,Waterford,KELTEC
Sony,Paulstown Kilkenny,Kilkenny,KELTEC
Sony,Piercetown,Wexford,KELTEC
Sony,Piltown Kilkenny,Kilkenny,KELTEC
Sony,Rathdrum,Wicklow,KELTEC
Sony,Rathnew,Wicklow,KELTEC
Sony,Rathvilly,Carlow,KELTEC
Sony,Redcross,Wicklow,KELTEC
Sony,Rosslare,Wexford,KELTEC
Sony,Rosslare Harbour (see Ballygea,Wexford,KELTEC
Sony,Roundwood,Wicklow,KELTEC
Sony,Sallynoggin,Dublin,KELTEC
Sony,Sandycove,Dublin,KELTEC
Sony,Shankill,Dublin,KELTEC
Sony,Shillelagh,Wicklow,KELTEC
Sony,Slieverue Kilkenny,Kilkenny,KELTEC
Sony,Stratford,Wicklow,KELTEC
Sony,Taghmon,Wexford,KELTEC
Sony,Thomastown,Kilkenny,KELTEC
Sony,Tinahely,Wicklow,KELTEC
Sony,Tinnahinch (see Graiguenamanag,Carlow,KELTEC
Sony,Tinriland,Carlow,KELTEC
Sony,Tullow,Carlow,KELTEC
Sony,Urlingford Kilkenny,Kilkenny,KELTEC
Sony,waterford,Waterford,KELTEC
Sony,Wexford,Wexford,KELTEC
Sony,Wicklow,Wicklow,KELTEC
Sony,Balbriggan,Dublin,LAWLESS BROTHERS
Sony,County Dublin Northside,Dublin,LAWLESS BROTHERS
Sony,Donabate,Dublin,LAWLESS BROTHERS
Sony,Dublin 1,Dublin,LAWLESS BROTHERS
Sony,Dublin 11,Dublin,LAWLESS BROTHERS
Sony,Dublin 13,Dublin,LAWLESS BROTHERS
Sony,Dublin 15,Dublin,LAWLESS BROTHERS
Sony,Dublin 3,Dublin,LAWLESS BROTHERS
Sony,Dublin 5,Dublin,LAWLESS BROTHERS
Sony,Dublin 7,Dublin,LAWLESS BROTHERS
Sony,Dublin 9,Dublin,LAWLESS BROTHERS
Sony,Garristown,Dublin,LAWLESS BROTHERS
Sony,Lusk,Dublin,LAWLESS BROTHERS
Sony,Malahide,Dublin,LAWLESS BROTHERS
Sony,Naul,Dublin,LAWLESS BROTHERS
Sony,Oldtown,Dublin,LAWLESS BROTHERS
Sony,Portmarnock,Dublin,LAWLESS BROTHERS
Sony,Rush,Dublin,LAWLESS BROTHERS
Sony,Skerries,Dublin,LAWLESS BROTHERS
Sony,Swords,Dublin,LAWLESS BROTHERS
Sony,Aglish,Waterford,MF SERVICES
Sony,An Rinn,Waterford,MF SERVICES
Sony,Ardfinnan,Tipperary,MF SERVICES
Sony,Ardmore,Waterford,MF SERVICES
Sony,Ardnacrusha (Castlebank),Clare,MF SERVICES
Sony,Ardskeagh,Clare,MF SERVICES
Sony,Baile Mhic re,Cork,MF SERVICES
Sony,Bal tha an Ghaorthaidh,Cork,MF SERVICES
Sony,Ballina,Tipperary,MF SERVICES
Sony,Ballineen/Enniskean,Cork,MF SERVICES
Sony,Ballingarry,Tipperary,MF SERVICES
Sony,Ballinroad,Waterford,MF SERVICES
Sony,Ballycannan,Clare,MF SERVICES
Sony,Ballyclerahan,Tipperary,MF SERVICES
Sony,Ballyclogh,Cork,MF SERVICES
Sony,Ballycotton,Cork,MF SERVICES
Sony,Ballydehob,Cork,MF SERVICES
Sony,Ballyporeen,Tipperary,MF SERVICES
Sony,Baltimore,Cork,MF SERVICES
Sony,Bansha,Tipperary,MF SERVICES
Sony,Banteer,Cork,MF SERVICES
Sony,Bantry,Cork,MF SERVICES
Sony,Birr Town,Offaly,MF SERVICES
Sony,Boherbue,Cork,MF SERVICES
Sony,Borrisokane,Tipperary,MF SERVICES
Sony,Borrisoleigh,Tipperary,MF SERVICES
Sony,Broadford,Limerick,MF SERVICES
Sony,Bruff,Limerick,MF SERVICES
Sony,Bruree,Limerick,MF SERVICES
Sony,Buttevant,Cork,MF SERVICES
Sony,Caherconlish,Limerick,MF SERVICES
Sony,Cahir,Tipperary,MF SERVICES
Sony,Cappamore,Limerick,MF SERVICES
Sony,Cappawhite,Tipperary,MF SERVICES
Sony,Cappoquin,Waterford,MF SERVICES
Sony,Carrick-on-Suir Environs,Waterford,MF SERVICES
Sony,Carrick-on-Suir Town,Tipperary,MF SERVICES
Sony,Carrigkerry,Limerick,MF SERVICES
Sony,Cashel Environs,Tipperary,MF SERVICES
Sony,Cashel Town,Tipperary,MF SERVICES
Sony,Castleconnell,Limerick,MF SERVICES
Sony,Castlelyons,Cork,MF SERVICES
Sony,Castletownbere,Cork,MF SERVICES
Sony,Castletownroche,Cork,MF SERVICES
Sony,Castletownsend,Cork,MF SERVICES
Sony,Charleville (see Rathluirc),Cork,MF SERVICES
Sony,Clashmore,Waterford,MF SERVICES
Sony,Clogheen,Tipperary,MF SERVICES
Sony,Clonakilty Environs,Cork,MF SERVICES
Sony,Clonakilty Town,Cork,MF SERVICES
Sony,Clonlara,Clare,MF SERVICES
Sony,Clonmel  South Tipperary,Tipperary,MF SERVICES
Sony,Cloughjordan,Tipperary,MF SERVICES
Sony,Corofin,Clare,MF SERVICES
Sony,Courtmacsherry,Cork,MF SERVICES
Sony,Cratloe,Clare,MF SERVICES
Sony,Crusheen,Clare,MF SERVICES
Sony,Doneraile,Cork,MF SERVICES
Sony,Doon,Limerick,MF SERVICES
Sony,Doonbeg,Clare,MF SERVICES
Sony,Drimoleague,Cork,MF SERVICES
Sony,Dromina,Cork,MF SERVICES
Sony,Dromineer,Tipperary,MF SERVICES
Sony,Drommahane,Cork,MF SERVICES
Sony,Drumcollogher,Limerick,MF SERVICES
Sony,Dundrum,Tipperary,MF SERVICES
Sony,Dungarvan Environs,Waterford,MF SERVICES
Sony,Dungarvan Town,Waterford,MF SERVICES
Sony,Dunhill,Waterford,MF SERVICES
Sony,Dunmanway,Cork,MF SERVICES
Sony,Dunmore East,Waterford,MF SERVICES
Sony,Durrus,Cork,MF SERVICES
Sony,Emly,Tipperary,MF SERVICES
Sony,Ennis Environs,Clare,MF SERVICES
Sony,Ennis Town,Clare,MF SERVICES
Sony,Enniskean  (see Ballineen/Enni,Cork,MF SERVICES
Sony,Ennistymon,Clare,MF SERVICES
Sony,Feakle,Clare,MF SERVICES
Sony,Fedamore,Limerick,MF SERVICES
Sony,Fethard,Tipperary,MF SERVICES
Sony,Galbally,Limerick,MF SERVICES
Sony,Glanworth,Cork,MF SERVICES
Sony,Golden,Tipperary,MF SERVICES
Sony,Gortnahoo,Tipperary,MF SERVICES
Sony,Holycross,Tipperary,MF SERVICES
Sony,Hospital,Limerick,MF SERVICES
Sony,Inagh,Clare,MF SERVICES
Sony,Inchigeelagh,Cork,MF SERVICES
Sony,Kanturk,Cork,MF SERVICES
Sony,Kildorrery,Cork,MF SERVICES
Sony,Kildysart,Clare,MF SERVICES
Sony,Kilfinane,Limerick,MF SERVICES
Sony,Kilkee,Clare,MF SERVICES
Sony,Kilkishen,Clare,MF SERVICES
Sony,Kill,Waterford,MF SERVICES
Sony,Killaloe,Clare,MF SERVICES
Sony,Killavullen,Cork,MF SERVICES
Sony,Killenaule,Tipperary,MF SERVICES
Sony,Kilmacthomas,Waterford,MF SERVICES
Sony,Kilmihill,Clare,MF SERVICES
Sony,Kilmurry,Clare,MF SERVICES
Sony,Kilrush Environs,Clare,MF SERVICES
Sony,Kilrush Town,Clare,MF SERVICES
Sony,Kilsheelan,Tipperary,MF SERVICES
Sony,Kilteely,Limerick,MF SERVICES
Sony,Kilworth,Cork,MF SERVICES
Sony,Knocklong,Limerick,MF SERVICES
Sony,Knocknagree,Cork,MF SERVICES
Sony,Lahinch,Clare,MF SERVICES
Sony,Leap,Cork,MF SERVICES
Sony,Lemybrien,Waterford,MF SERVICES
Sony,Liscannor,Clare,MF SERVICES
Sony,Liscarroll,Cork,MF SERVICES
Sony,Lismore,Waterford,MF SERVICES
Sony,Lismore Environs,Waterford,MF SERVICES
Sony,Littleton,Tipperary,MF SERVICES
Sony,Milford,Cork,MF SERVICES
Sony,Millstreet,Cork,MF SERVICES
Sony,Miltown Malbay,Clare,MF SERVICES
Sony,Mitchelstown,Cork,MF SERVICES
Sony,Moneygall,Offaly,MF SERVICES
Sony,Montpelier (see O Briensbridge,Clare,MF SERVICES
Sony,Moroe,Limerick,MF SERVICES
Sony,Mountshannon,Clare,MF SERVICES
Sony,Mullinahone,Tipperary,MF SERVICES
Sony,Nenagh Town,Tipperary,MF SERVICES
Sony,Newcastle,Tipperary,MF SERVICES
Sony,Newmarket,Cork,MF SERVICES
Sony,Newmarket-on-Fergus,Clare,MF SERVICES
Sony,Newport,Tipperary,MF SERVICES
Sony,Newtown,Cork,MF SERVICES
Sony,Newtown,Tipperary,MF SERVICES
Sony,O Briensbridge-Montpelier,Limerick,MF SERVICES
Sony,Oola,Limerick,MF SERVICES
Sony,Pallas Grean,Limerick,MF SERVICES
Sony,Pallaskenry,Limerick,MF SERVICES
Sony,Portlaw,Waterford,MF SERVICES
Sony,Portroe,Tipperary,MF SERVICES
Sony,Puckaun,Tipperary,MF SERVICES
Sony,Quilty,Clare,MF SERVICES
Sony,Quin,Clare,MF SERVICES
Sony,Rathluirc (or Charleville),Cork,MF SERVICES
Sony,Reardnogy,Tipperary,MF SERVICES
Sony,Roscrea,Tipperary,MF SERVICES
Sony,Rosegreen,Tipperary,MF SERVICES
Sony,Rosscarbery,Cork,MF SERVICES
Sony,Scarriff,Clare,MF SERVICES
Sony,Schull,Cork,MF SERVICES
Sony,Shanagarry,Cork,MF SERVICES
Sony,Shanagolden,Limerick,MF SERVICES
Sony,Shannon,Clare,MF SERVICES
Sony,Shannon Environs,Clare,MF SERVICES
Sony,Shinrone,Offaly,MF SERVICES
Sony,Silvermines,Tipperary,MF SERVICES
Sony,Sixmilebridge,Clare,MF SERVICES
Sony,Skibbereen Town,Cork,MF SERVICES
Sony,Stradbally,Waterford,MF SERVICES
Sony,Tallow,Waterford,MF SERVICES
Sony,Templemore Town,Tipperary,MF SERVICES
Sony,Templetuohy,Tipperary,MF SERVICES
Sony,Thurles Town,Tipperary,MF SERVICES
Sony,Timoleague,Cork,MF SERVICES
Sony,Tipperary Town,Tipperary,MF SERVICES
Sony,Toomevara,Tipperary,MF SERVICES
Sony,Tramore,Waterford,MF SERVICES
Sony,Tramore Environs,Waterford,MF SERVICES
Sony,Tulla,Clare,MF SERVICES
Sony,Twomileborris,Tipperary,MF SERVICES
Sony,Unionhall,Cork,MF SERVICES
Sony,Villierstown,Waterford,MF SERVICES
Sony,Ahascragh,Galway,OCONNORS SERVICE CENTRE
Sony,An Cheathr Rua,Galway,OCONNORS SERVICE CENTRE
Sony,An Spidal,Galway,OCONNORS SERVICE CENTRE
Sony,Annaghdown,Galway,OCONNORS SERVICE CENTRE
Sony,Athenry,Galway,OCONNORS SERVICE CENTRE
Sony,Baile Chlir,Galway,OCONNORS SERVICE CENTRE
Sony,Ballindine,Mayo,OCONNORS SERVICE CENTRE
Sony,Ballinrobe,Mayo,OCONNORS SERVICE CENTRE
Sony,Clarinbridge,Galway,OCONNORS SERVICE CENTRE
Sony,Clifden,Galway,OCONNORS SERVICE CENTRE
Sony,Cong,Galway,OCONNORS SERVICE CENTRE
Sony,Corrofin,Galway,OCONNORS SERVICE CENTRE
Sony,Craughwell,Galway,OCONNORS SERVICE CENTRE
Sony,Dunmore,Galway,OCONNORS SERVICE CENTRE
Sony,Eyrecourt,Galway,OCONNORS SERVICE CENTRE
Sony,Galway,Galway,OCONNORS SERVICE CENTRE
Sony,Gort,Galway,OCONNORS SERVICE CENTRE
Sony,Headford,Galway,OCONNORS SERVICE CENTRE
Sony,Killimor,Galway,OCONNORS SERVICE CENTRE
Sony,Kinvara,Galway,OCONNORS SERVICE CENTRE
Sony,Lackaghbeg,Galway,OCONNORS SERVICE CENTRE
Sony,Loughrea,Galway,OCONNORS SERVICE CENTRE
Sony,Maigh Cuilinn,Galway,OCONNORS SERVICE CENTRE
Sony,Monivea,Galway,OCONNORS SERVICE CENTRE
Sony,Mount Bellew,Galway,OCONNORS SERVICE CENTRE
Sony,Moylough,Galway,OCONNORS SERVICE CENTRE
Sony,Na Forbacha,Galway,OCONNORS SERVICE CENTRE
Sony,Oranmore,Galway,OCONNORS SERVICE CENTRE
Sony,Oughterard,Galway,OCONNORS SERVICE CENTRE
Sony,Portumna,Galway,OCONNORS SERVICE CENTRE
Sony,Roundstone,Galway,OCONNORS SERVICE CENTRE
Sony,Shrule,Mayo,OCONNORS SERVICE CENTRE
Sony,Tuam,Galway,OCONNORS SERVICE CENTRE
Sony,Woodford,Galway,OCONNORS SERVICE CENTRE
Sony,Aghada-Farsid-Rostellan,Cork,T.V.A.E.
Sony,Ballygarvan,Cork,T.V.A.E.
Sony,Ballyhooly,Cork,T.V.A.E.
Sony,Bandon,Cork,T.V.A.E.
Sony,Bandon Environs,Cork,T.V.A.E.
Sony,Belgooly,Cork,T.V.A.E.
Sony,Blarney,Cork,T.V.A.E.
Sony,Bridebridge,Cork,T.V.A.E.
Sony,Carrigaline,Cork,T.V.A.E.
Sony,Carrignavar,Cork,T.V.A.E.
Sony,Carrigtwohill,Cork,T.V.A.E.
Sony,Castlemartyr,Cork,T.V.A.E.
Sony,Churchbay,Cork,T.V.A.E.
Sony,Churchtown,Cork,T.V.A.E.
Sony,Cloughduv,Cork,T.V.A.E.
Sony,Cloyne,Cork,T.V.A.E.
Sony,Coachford,Cork,T.V.A.E.
Sony,Cobh,Cork,T.V.A.E.
Sony,Cobh Environs,Cork,T.V.A.E.
Sony,Cobh Town,Cork,T.V.A.E.
Sony,Conna,Cork,T.V.A.E.
Sony,Cork,Cork,T.V.A.E.
Sony,Cork Suburbs,Cork,T.V.A.E.
Sony,Crookstown,Cork,T.V.A.E.
Sony,Crosshaven,Cork,T.V.A.E.
Sony,Dripsey (see Model Village),Cork,T.V.A.E.
Sony,Farran,Cork,T.V.A.E.
Sony,Farsid (see Aghada-Farsid-Rost,Cork,T.V.A.E.
Sony,Fermoy,Cork,T.V.A.E.
Sony,Fermoy Environs,Cork,T.V.A.E.
Sony,Fermoy Town,Cork,T.V.A.E.
Sony,Fountainstown,Cork,T.V.A.E.
Sony,Innishannon,Cork,T.V.A.E.
Sony,Kilbrittain,Cork,T.V.A.E.
Sony,Killeagh,Cork,T.V.A.E.
Sony,Killumney,Cork,T.V.A.E.
Sony,Kinsale,Cork,T.V.A.E.
Sony,Kinsale,Cork,T.V.A.E.
Sony,Knockglass,Cork,T.V.A.E.
Sony,Knockraha,Cork,T.V.A.E.
Sony,Loughbeg (see Ringaskiddy),Cork,T.V.A.E.
Sony,Mallow Environs,Cork,T.V.A.E.
Sony,Mallow Town,Cork,T.V.A.E.
Sony,Midleton,Cork,T.V.A.E.
Sony,Model Village (or Dripsey),Cork,T.V.A.E.
Sony,Passage West,Cork,T.V.A.E.
Sony,Rathard,Cork,T.V.A.E.
Sony,Rathcormac,Cork,T.V.A.E.
Sony,Ringaskiddy (or Loughbeg),Cork,T.V.A.E.
Sony,Rostellan (see Aghada-Farsid-R,Cork,T.V.A.E.
Sony,Tower,Cork,T.V.A.E.
Sony,Watergrasshill,Cork,T.V.A.E.
Sony,Whitechurch,Cork,T.V.A.E.
Sony,Whitegate,Cork,T.V.A.E.
Sony,Youghal Environs,Cork,T.V.A.E.
Sony,Youghal Town,Cork,T.V.A.E.
Sony,Abbeydorney,Kerry,
Sony,Abbeyfeale,Limerick,
Sony,Abbeyleix,Laois,
Sony,Adare,Limerick,
Sony,An Daingean,Kerry,
Sony,An Uaimh  (see Navan),Meath,
Sony,Annacotty,Limerick,
Sony,Annascaul,Kerry,
Sony,Ardagh,Limerick,
Sony,Ardfert,Kerry,
Sony,Ashbourne,Meath,
Sony,Askeaton,Limerick,
Sony,Athboy,Meath,
Sony,Athea,Limerick,
Sony,Athlone Environs,Meath,
Sony,Athlone Town,Meath,
Sony,Bal an Mhuirthead,Mayo,
Sony,Balbradagh,Meath,
Sony,Balla,Mayo,
Sony,Ballaghaderreen,Roscommon,
Sony,Ballina Environs,Mayo,
Sony,Ballina Town,Mayo,
Sony,Ballinagar,Offaly,
Sony,Ballinakill,Laois,
Sony,Ballinalee,Longford,
Sony,Ballinasloe,Galway,
Sony,Ballingarry,Limerick,
Sony,Ballinlough,Roscommon,
Sony,Ballivor,Meath,
Sony,Ballyagran,Limerick,
Sony,Ballybunion,Kerry,
Sony,Ballycastle,Mayo,
Sony,Ballycolla,Laois,
Sony,Ballycumber,Offaly,
Sony,Ballydesmond,Cork,
Sony,Ballyduff,Kerry,
Sony,Ballyfarnan,Roscommon,
Sony,Ballygar,Galway,
Sony,Ballyhahill,Limerick,
Sony,Ballyhaunis,Mayo,
Sony,Ballyheigue,Kerry,
Sony,Ballylanders,Limerick,
Sony,Ballyleague (see Lanesborough-,Longford,
Sony,Ballylinan,Laois,
Sony,Ballylongford,Kerry,
Sony,Ballymahon,Longford,
Sony,Ballymore,Meath,
Sony,Ballynacargy,Meath,
Sony,Ballyroan,Laois,
Sony,Ballyvaughan,Clare,
Sony,Balreask,Meath,
Sony,Banagher,Offaly,
Sony,Bangor Erris,Mayo,
Sony,Beaufort,Kerry,
Sony,Bellahy (see Charlestown-Bella,Mayo,
Sony,Bellanagare,Roscommon,
Sony,Bellavary,Mayo,
Sony,Belmont,Offaly,
Sony,Bettystown (see Laytown-Bettys,Meath,
Sony,Borris-in-Ossory,Laois,
Sony,Boyle,Roscommon,
Sony,Boyle Environs,Roscommon,
Sony,Bracknagh,Offaly,
Sony,Brosna,Kerry,
Sony,Bruachbhailte Cathair na Gaill,Galway,
Sony,Bunnyconnelan West,Mayo,
Sony,Cahirciveen,Kerry,
Sony,Carlanstown,Meath,
Sony,Carlow Environs,Laois,
Sony,Carrick-on-Shannon,Roscommon,
Sony,Castlebar Environs,Mayo,
Sony,Castlebar Town,Mayo,
Sony,Castlegregory,Kerry,
Sony,Castleisland,Kerry,
Sony,Castlepollard,Meath,
Sony,Castlerea,Roscommon,
Sony,Castletown,Laois,
Sony,Causeway,Kerry,
Sony,Ceannanus Mr Environs,Meath,
Sony,Ceannanus Mr Town,Meath,
Sony,Charlestown-Bellahy,Mayo,
Sony,Cill Rnin,Galway,
Sony,Clara,Offaly,
Sony,Claremorris,Clare,
Sony,Clarina,Limerick,
Sony,Cloghan,Offaly,
Sony,Clonard,Meath,
Sony,Clonaslee,Laois,
Sony,Clonbullogue,Offaly,
Sony,Clonee Village,Meath,
Sony,Clonmellon,Meath,
Sony,Clontuskert,Roscommon,
Sony,Cloonfad,Roscommon,
Sony,Cluain B,Galway,
Sony,Collinstown,Meath,
Sony,Coolagary,Offaly,
Sony,Coonagh,Limerick,
Sony,Cromane,Kerry,
Sony,Croom,Limerick,
Sony,Crossmolina,Mayo,
Sony,Daingean,Offaly,
Sony,Delvin,Meath,
Sony,Donore,Meath,
Sony,Dooagh (see Keel-Dooagh),Mayo,
Sony,Drumconrath,Meath,
Sony,Drumlish,Longford,
Sony,Duleek,Meath,
Sony,Dunboyne,Meath,
Sony,Dunshaughlin,Meath,
Sony,Durrow,Laois,
Sony,Edenderry,Offaly,
Sony,Edgeworthstown (see,Meath,
Sony,Elphin,Roscommon,
Sony,Emo,Laois,
Sony,Enfield,Meath,
Sony,Erril,Laois,
Sony,farranforde,Kerry,
Sony,Fenit,Kerry,
Sony,Ferbane,Offaly,
Sony,Foxford,Mayo,
Sony,Foynes,Limerick,
Sony,Frankford (see Kilcormac),Offaly,
Sony,Frenchpark,Roscommon,
Sony,Geashill,Offaly,
Sony,Glassan,Meath,
Sony,Glen,Limerick,
Sony,Glenamaddy,Galway,
Sony,Glenbeigh,Kerry,
Sony,Glin,Limerick,
Sony,Gneevgullia,Kerry,
Sony,Gob an Choire,Mayo,
Sony,Gormanston,Meath,
Sony,Granard,Longford,
Sony,Julianstown/Whitecross,Meath,
Sony,Keadew,Roscommon,
Sony,Keel-Dooagh,Mayo,
Sony,Keenagh,Longford,
Sony,Kells (see Ceannanus Mr),Meath,
Sony,Kenmare,Kerry,
Sony,Kentstown,Meath,
Sony,Kilbeggan,Meath,
Sony,Kilcloon,Meath,
Sony,Kilcormac (or Frankford),Offaly,
Sony,Kildalkey,Meath,
Sony,Kilfenora,Clare,
Sony,Kilgarvan,Kerry,
Sony,Kilkelly,Mayo,
Sony,Killala,Mayo,
Sony,Killarney,Kerry,
Sony,Killeigh,Offaly,
Sony,Killorglin,Kerry,
Sony,Killucan-Rathwire,Meath,
Sony,Kilmaine,Mayo,
Sony,Kilmainham,Meath,
Sony,Kilmallock,Limerick,
Sony,Kilmessan,Meath,
Sony,Kiltimagh,Mayo,
Sony,Kinnegad,Meath,
Sony,Kinnitty,Offaly,
Sony,Knightstown,Kerry,
Sony,Knock,Mayo,
Sony,Lanesborough-Ballyleague,Roscommon,
Sony,Laytown-Bettystown-Mornington,Meath,
Sony,limerick,Limerick,
Sony,Limerick City,Limerick,
Sony,Lisdoonvarna,Clare,
Sony,Listowel,Kerry,
Sony,Listowel,Kerry,
Sony,Lixnaw,Kerry,
Sony,Longford Environs,Longford,
Sony,Longford Town,Longford,
Sony,Longwood,Meath,
Sony,Loughglinn,Roscommon,
Sony,Louisburgh,Mayo,
Sony,Macroom Environs,Cork,
Sony,Macroom Town,Cork,
Sony,Maryborough (see PortLaoise),Laois,
Sony,Meathas Truim (or Edgeworthsto,Meath,
Sony,Milltown,Kerry,
Sony,Moate,Meath,
Sony,Mornington (see Laytown-Bettys,Meath,
Sony,Mountcollins,Limerick,
Sony,Mountmellick,Laois,
Sony,Mountmellick Environs,Laois,
Sony,Mountrath,Laois,
Sony,Mucklagh,Offaly,
Sony,Mullingar,Meath,
Sony,Mullingar Environs,Meath,
Sony,Multyfarnham,Meath,
Sony,Mungret,Limerick,
Sony,Navan (An Uaimh) Town,Meath,
Sony,Navan Environs,Meath,
Sony,Newcastle West,Limerick,
Sony,Newport,Mayo,
Sony,Newtown,Laois,
Sony,Newtownforbes,Longford,
Sony,Newtownsandes,Kerry,
Sony,Nobber,Meath,
Sony,Oldcastle,Meath,
Sony,Omeath,Meath,
Sony,Patrickswell,Limerick,
Sony,Pollagh,Offaly,
Sony,Portarlington,Laois,
Sony,PortLaoise,Laois,
Sony,Raharney,Meath,
Sony,Rathdowney,Laois,
Sony,Rathkeale,Limerick,
Sony,Rathmolyon,Meath,
Sony,Rathmore,Kerry,
Sony,Rathwire (see Killucan-Rathwir,Meath,
Sony,Ratoath,Meath,
Sony,Rhode,Offaly,
Sony,Rochfortbridge,Meath,
Sony,Roosky,Roscommon,
Sony,Roscommon,Roscommon,
Sony,Rosscahill,Galway,
Sony,Shannonbridge,Offaly,
Sony,Slane,Meath,
Sony,Sneem,Kerry,
Sony,Spa,Kerry,
Sony,Stamullen,Meath,
Sony,Stradbally,Laois,
Sony,Strokestown,Roscommon,
Sony,Summerhill,Meath,
Sony,Swinford,Mayo,
Sony,Tarbert,Kerry,
Sony,Tralee,Kerry,
Sony,Trim Environs,Meath,
Sony,Trim Town,Meath,
Sony,Tullamore Town,Offaly,
Sony,Tyrrellspass,Meath,
Sony,Waterville-Spunkane,Kerry,
Sony,Westport Town,Mayo,
Sony,Whitecross (see Julianstown/Wh,Meath,
Sony,Whitegate,Clare,
